[
    {
        "id": 1,
        "title": "Dashboard",
        "routerLink": "/pages/dashboard",
        "href": null,
        "icon": "tachometer",
        "target": null,
        "hasSubMenu": false,
        "parentId": 0
    },
    {
        "id": 40,
        "title": "Pages",
        "routerLink": null,
        "href": null,
        "icon": "file-text-o",
        "target": null,
        "hasSubMenu": true,
        "parentId": 0
    },
    {
        "id": 43,
        "title": "Login",
        "routerLink": "/login",
        "href": null,
        "icon": "sign-in",
        "target": null,
        "hasSubMenu": false,
        "parentId": 40
    },
    {
        "id": 43,
        "title": "Register",
        "routerLink": "/register",
        "href": null,
        "icon": "registered",
        "target": null,
        "hasSubMenu": false,
        "parentId": 40
    },
    {
        "id": 45,
        "title": "Blank",
        "routerLink": "/pages/blank",
        "href": null,
        "icon": "file-o",
        "target": null,
        "hasSubMenu": false,
        "parentId": 40
    },
    {
        "id": 46,
        "title": "Error",
        "routerLink": "/pagenotfound",
        "href": null,
        "icon": "exclamation-circle",
        "target": null,
        "hasSubMenu": false,
        "parentId": 40
    },
    {
        "id": 140,
        "title": "Level 1",
        "routerLink": null,
        "href": null,
        "icon": "folder-open-o",
        "target": null,
        "hasSubMenu": true,
        "parentId": 0
    },
    {
        "id": 141,
        "title": "Level 2",
        "routerLink": null,
        "href": null,
        "icon": "folder-open-o",
        "target": null,
        "hasSubMenu": true,
        "parentId": 140
    },
    {
        "id": 142,
        "title": "Level 3",
        "routerLink": null,
        "href": null,
        "icon": "folder-open-o",
        "target": null,
        "hasSubMenu": true,
        "parentId": 141
    },
    {
        "id": 143,
        "title": "Level 4",
        "routerLink": null,
        "href": null,
        "icon": "folder-open-o",
        "target": null,
        "hasSubMenu": true,
        "parentId": 142
    },
    {
        "id": 144,
        "title": "Level 5",
        "routerLink": null,
        "href": null,
        "icon": "folder-open-o",
        "target": null,
        "hasSubMenu": true,
        "parentId": 143
    },
    {
        "id": 200,
        "title": "External Link",
        "routerLink": null,
        "href": "http://themeseason.com",
        "icon": "external-link",
        "target": "_blank",
        "hasSubMenu": false,
        "parentId": 0
    }
]